Session 9.2: Spatio-temporal modelling for area data
…
---

# How to model interactions

- Data in R format

```
# A tibble: 1,749 × 8
   ID.area   Obs ID.year   Exp     y     E NAME    ID.area.year
     <int> <int>   <dbl> <dbl> <int> <dbl> <chr>          <int>
 1       1    20       1  25.8    20  25.8 Appling            1
 2       1    24       2  25.1    24  25.1 Appling            2
 3       1    25       3  22.8    25  22.8 Appling            3
 4       1    31       4  25.2    31  25.2 Appling            4
 5       1    24       5  24.9    24  24.9 Appling            5
 6       1    40       6  26.7    40  26.7 Appling            6
 7       1    29       7  26.0    29  26.0 Appling            7
 8       1    35       8  27.2    35  27.2 Appling            8
 9       1    26       9  25.1    26  25.1 Appling            9
10       1    25      10  24.5    25  24.5 Appling           10
# ℹ 1,739 more rows
```
…
